{
  "project_info": {
    "project_number": "525861607066",
    "project_id": "ffbfnew",
    "storage_bucket": "ffbfnew.appspot.com"
  },
  "client": [
    {
      "client_info": {
        "mobilesdk_app_id": "1:525861607066:android:ca2c4ca83871ddd86bf123",
        "android_client_info": {
          "package_name": "com.example.ffbf"
        }
      },
      "oauth_client": [
        {
          "client_id": "525861607066-q3u4mkk8c5shbvj809lrcva4jrospovv.apps.googleusercontent.com",
          "client_type": 3
        }
      ],
      "api_key": [
        {
          "current_key": "AIzaSyDvTTA9gzBUd1dxhkJm7bjD-wxA-OQgYe0"
        }
      ],
      "services": {
        "appinvite_service": {
          "other_platform_oauth_client": [
            {
              "client_id": "525861607066-q3u4mkk8c5shbvj809lrcva4jrospovv.apps.googleusercontent.com",
              "client_type": 3
            }
          ]
        }
      }
    }
  ],
  "configuration_version": "1"
}